{
  "type": "service_account",
  "project_id": "amole-registration",
  "private_key_id": "0458c6f07115770f2882f22e3fa49725b0f93f73",
  "private_key": "-----BEGIN PRIVATE KEY-----\nMIIEvQIBADANBgkqhkiG9w0BAQEFAASCBKcwggSjAgEAAoIBAQC5fsrouVPtnJ6m\ngtDYjTAVliv1rRTNkZPnFSCMimj9KJ6s+JrjoZ7GouA4nYATsbdxBtML1XlacXSz\nRKAt9Pr8cfG4JJl9loaaOYK80BgTm20dQ7Yl/99wsgb2JSF2vZoh4GrObY5J5Yfo\n4M/+J4szS7hmAMT4cmZTTIM0mN6qOQvm5sR9sHDRP8uPaUdCQnXaLtlxFf3iep8F\naGxfuYbHkF8JeeyJh1mHfXaANx5ciEgVyLAfNTMPaC836VbnfhJya/YCQRGi/y46\nVpX5Q4mkFbO7ECC222JuZS0+1b1NSoqIQrFMPk7hRmOmBbpgp0PwQSbEx0FCXQJ/\nNqiTY3JDAgMBAAECggEAAfEuvQQKZGpSNj/CtwRiFKpyAwxRCPFKwU3KfZ40s4iE\nLMnHjrWSUisXZOWv7G+HvP0LeEwVDVozFMNrApWA4Tls2fbhd9v7xHabWfsQcs1w\nStuldxK4QKz51K7r1vCXl141pWamlDsn0qDenJ8bs9RJoHZxRCv9H/HPoofX4Plb\nrnBRWFlBbBdXEltM2jbY5+cEt6NrFKNlt9WMIoolY6khlUUY2Qq44CjIMpBPZjAY\nZz2JimQyQ4A4dDugMj1VHME4Fp51TYX26tZZP01FH4uBU7nRaxdr9aCCxIEUOugl\n9y6EARh84ZmzDRfmw8A147Kz3cHl9bKQy0PAjqoOAQKBgQDugxx8YAcfGnhlD8Qf\nYn3QLCv81ym1OsKUcy3ziKC9LT767+fmmYeYU+zkt+WwuxaRjRvvUQTXVsX7gQ9E\n54E+94NGg4bO1JiAaRalhvjSCKd8R1WkGWcBcxwJkovvHPXHS7lURrK/QJvgyUtL\nBQuFZ3hZ3Ekm0lWlIi1AXtCsQwKBgQDHGI0dJhSa5XD4TWNqF3heQ8WRjV+8GsMp\nwxDiZDSb6NhbjkeMYjMlqxSSRnsafr/HUmmt3eT/vmwfBnnnBVMQgm7+Rt8Z9clS\nDLhaSO9WvFaym+fTRGibicEAeQvJGF/g5ezYmKs4StNumzT8JDbVg2cHEADZ+233\ngwMhiVjCAQKBgEHNmHFUCQLyyZ6QP/qssKtbVHN4ZUBjysUsFdRnsHkg34xZ3fAI\nEZncJbJgbhVZOHvFo5xeDOjgPtUJoU3QVR8rKGOu6+VqT/y1gZL/bux7iMHH6H/S\nplGHEYgujz7UDZcDdEklDDGpwJe+0XAMH0aZ6mFYXjJAu3JIwJVO02GDAoGBALtP\n0+OqohQg7SoO1QtJTYuSQ1xvH7S/kQHHbikwkXZlmLh6ocHn2asEy/Par5L70L5c\nQOS9MOeTZfHCjAnXrpCHxpkgYGHyJhg1s3Ptzo9R3ldn6rGPWMOM1LH3MClf70SN\nzUjySZRKgaU8DJt0DsrON64jVkm/DXSiI933dDQBAoGABfadTMP3S6mDvgIq6Bw2\nhZ+wJr08Md3i6h0farvrM8nVaiKeDEpluIaBF94s1ax0d59YVa1+HHX3OQ3ynCkO\nhE59/PUg+QPa43zxbWs7EoGiadfOISIGvX+1IP7Ih8MuA3FZ5rCLs8skZsoTFvUk\n6QhVBL+iikrHQ6ylesslQb4=\n-----END PRIVATE KEY-----\n",
  "client_email": "firebase-adminsdk-73yvv@amole-registration.iam.gserviceaccount.com",
  "client_id": "110140026164346548731",
  "auth_uri": "https://accounts.google.com/o/oauth2/auth",
  "token_uri": "https://oauth2.googleapis.com/token",
  "auth_provider_x509_cert_url": "https://www.googleapis.com/oauth2/v1/certs",
  "client_x509_cert_url": "https://www.googleapis.com/robot/v1/metadata/x509/firebase-adminsdk-73yvv%40amole-registration.iam.gserviceaccount.com"
}
